Data Wrangling
…
rm(cols_na, ori_lev, pick_lev, new_lev)
# modify: returns the same type as the input object

# 其餘特徵

#   已處理欄位名稱
cols_exc <- c(names(tbl_others), "批檢驗結果(除去標示因素)", names(tbl_X_g2)) 

#
tbl_ori %>% 
    select(!(all_of(cols_exc) | contains("黑名單")))    # 排除已處理欄位

# A tibble: 24,165 × 60
   關別gp 應檢驗方式 關區     報驗人類別 運輸方式 是否為轉口 是否為新公司
    <dbl>      <dbl> <chr>         <dbl> <chr>         <dbl>        <dbl>
 1      0          1 基隆關區          1 海運              0            0
 2      0          1 基隆關區          1 海運              0            0
 3      1          1 基隆關區          1 海運              0            0
 4      1          1 基隆關區          1 海運              0            0
 5      0          1 基隆關區          1 海運              0            0
 6      0          1 基隆關區          1 海運              1            1
 7      0          1 基隆關區          1 海運              0            0
 8      1          1 基隆關區          1 海運              0            0
 9      0          3 基隆關區          1 海運              0            1
10      1          1 基隆關區          1 海運              0            0
# ℹ 24,155 more rows
# ℹ 53 more variables: 是否為代理進口 <dbl>, 是否為分公司 <dbl>,
#   進口商有無工廠登記 <dbl>, 有無報驗代理人 <dbl>, 無製造日期 <dbl>,
#   台幣完稅價格 <chr>, 同集團公司家數 <chr>, 運輸天數 <chr>, 成立年數 <chr>,
#   總淨重公斤數 <chr>, 進口商累積總中分類數 <chr>, 進口商累積貨品號列數 <chr>,
#   進口商累積報單數 <chr>, 業別數 <chr>, GDP成長率 <chr>,
#   全球糧食安全指標 <chr>, 稽查初查次數 <chr>, 稽查GHP初查次數 <chr>, …
